%YAML 1.1
%TAG !u! tag:unity3d.com,2011:
--- !u!1 &2192440224818978827
GameObject:
  m_ObjectHideFlags: 0
  m_CorrespondingSourceObject: {fileID: 0}
  m_PrefabInstance: {fileID: 0}
  m_PrefabAsset: {fileID: 0}
  serializedVersion: 6
  m_Component:
  - component: {fileID: 4330782160864623316}
  - component: {fileID: 5523808797349502482}
  m_Layer: 0
  m_Name: pre_GameManager
  m_TagString: Untagged
  m_Icon: {fileID: 0}
  m_NavMeshLayer: 0
  m_StaticEditorFlags: 0
  m_IsActive: 1
--- !u!4 &4330782160864623316
Transform:
  m_ObjectHideFlags: 0
  m_CorrespondingSourceObject: {fileID: 0}
  m_PrefabInstance: {fileID: 0}
  m_PrefabAsset: {fileID: 0}
  m_GameObject: {fileID: 2192440224818978827}
  m_LocalRotation: {x: 0, y: 0, z: 0, w: 1}
  m_LocalPosition: {x: 0, y: 0, z: 0}
  m_LocalScale: {x: 1, y: 1, z: 1}
  m_Children: []
  m_Father: {fileID: 0}
  m_RootOrder: 0
  m_LocalEulerAnglesHint: {x: 0, y: 0, z: 0}
--- !u!114 &5523808797349502482
MonoBehaviour:
  m_ObjectHideFlags: 0
  m_CorrespondingSourceObject: {fileID: 0}
  m_PrefabInstance: {fileID: 0}
  m_PrefabAsset: {fileID: 0}
  m_GameObject: {fileID: 2192440224818978827}
  m_Enabled: 1
  m_EditorHideFlags: 0
  m_Script: {fileID: 11500000, guid: 4494b91c74f6ee44d8b73cc00f387538, type: 3}
  m_Name: 
  m_EditorClassIdentifier: 
  state: 0
  isTakingPlayerInput: 0
  secondsUntilGameStarts: 0.1
  secondsUntilHeartBreak: 200
  secondsUntilHeartLevelLoads: 2
  secondsUntilWebRepairLevelLoads: 2
  secondsUntilWebRepairPlayerControlStarts: 2
  secondsInGame: 0
  _timer: 0
  flysCaughtCount: 0
  websMadeCount: 0
  heartRepairCount: 0
  heartRepairsScript: {fileID: 0}
